…
```r
library(tidyverse)
penguins <- read_csv("data/penguins.csv")
```

To select data, we must first tell select which data set we are selecting from, and then give it our selection. Here, we are asking R to `select()` from the `penguins` data set the `island`, `species` and `sex` columns


```r
select(penguins, island, species, sex)
```

```{.output}
# A tibble: 344 × 3
   island    species sex   
   <fct>     <fct>   <fct> 
 1 Torgersen Adelie  male  
 2 Torgersen Adelie  female
 3 Torgersen Adelie  female
 4 Torgersen Adelie  <NA>  
 5 Torgersen Adelie  female
 6 Torgersen Adelie  male  
 7 Torgersen Adelie  female
 8 Torgersen Adelie  male  
 9 Torgersen Adelie  <NA>  
10 Torgersen Adelie  <NA>  
# … with 334 more rows
# ℹ Use `print(n = ...)` to see more rows
```

When we use `select()` we don't need to use quotations, we write in the names directly. We can also use the numeric indexes for the column, if we are 100% certain of the order of the columns:


```r
select(penguins, 1:3, 6)
```

```{.output}
# A tibble: 344 × 4
   species island    bill_length_mm body_mass_g
   <fct>   <fct>              <dbl>       <int>
 1 Adelie  Torgersen           39.1        3750
 2 Adelie  Torgersen           39.5        3800
 3 Adelie  Torgersen           40.3        3250
 4 Adelie  Torgersen           NA            NA
 5 Adelie  Torgersen           36.7        3450
 6 Adelie  Torgersen           39.3        3650
 7 Adelie  Torgersen           38.9        3625
 8 Adelie  Torgersen           39.2        4675
 9 Adelie  Torgersen           34.1        3475
10 Adelie  Torgersen           42          4250
# … with 334 more rows
# ℹ Use `print(n = ...)` to see more rows
```

In some cases, we want to remove columns, and not necessarily state all columns we want to keep. 
Select also allows for this by adding a minus (`-`)  sign in front of the column name you don't want.


```r
select(penguins, -bill_length_mm, -bill_depth_mm)
```

```{.output}
# A tibble: 344 × 6
   species island    flipper_length_mm body_mass_g sex     year
   <fct>   <fct>                 <int>       <int> <fct>  <int>
 1 Adelie  Torgersen               181        3750 male    2007
 2 Adelie  Torgersen               186        3800 female  2007
 3 Adelie  Torgersen               195        3250 female  2007
 4 Adelie  Torgersen                NA          NA <NA>    2007
 5 Adelie  Torgersen               193        3450 female  2007
 6 Adelie  Torgersen               190        3650 male    2007
 7 Adelie  Torgersen               181        3625 female  2007
 8 Adelie  Torgersen               195        4675 male    2007
 9 Adelie  Torgersen               193        3475 <NA>    2007
10 Adelie  Torgersen               190        4250 <NA>    2007
# … with 334 more rows
# ℹ Use `print(n = ...)` to see more rows
```

::::::::::::::::::::::::::::::::::::: challenge 
## Challenge 1
Select the columns sex, year, and species from the penguins dataset.

:::::::::::::::::::::::::::::::::::::::: solution 
## Solution


```r
select(penguins, sex, year, species)
```

```{.output}
# A tibble: 344 × 3
   sex     year species
   <fct>  <int> <fct>  
 1 male    2007 Adelie 
 2 female  2007 Adelie 
 3 female  2007 Adelie 
 4 <NA>    2007 Adelie 
 5 female  2007 Adelie 
 6 male    2007 Adelie 
 7 female  2007 Adelie 
 8 male    2007 Adelie 
 9 <NA>    2007 Adelie 
10 <NA>    2007 Adelie 
# … with 334 more rows
# ℹ Use `print(n = ...)` to see more rows
```
…
::::::::::::::::::::::::::::::::::::: challenge 

## Challenge 2
Change your selection so that species comes before sex. What is the difference in the output?

:::::::::::::::::::::::::::::::::::::::: solution 
## Solution


```r
select(penguins, species, sex, year)
```

```{.output}
# A tibble: 344 × 3
   species sex     year
   <fct>   <fct>  <int>
 1 Adelie  male    2007
 2 Adelie  female  2007
 3 Adelie  female  2007
 4 Adelie  <NA>    2007
 5 Adelie  female  2007
 6 Adelie  male    2007
 7 Adelie  female  2007
 8 Adelie  male    2007
 9 Adelie  <NA>    2007
10 Adelie  <NA>    2007
# … with 334 more rows
# ℹ Use `print(n = ...)` to see more rows
```
…
These selections are quite convenient and fast! But they can be even better. 

For instance, what if we want to choose all the columns with millimeter measurements? That could be quite convenient, making sure the variables we are working with have the same measurement scale.

We could of course type them all out, but the penguins data set has names that make it even easier for us, using something called tidy-selectors.

Here, we use a tidy-selector `ends_with()`, can you guess what it does? yes, it looks for columns that end with the string you provide it, here `"mm"`.


```r
select(penguins, ends_with("mm"))
```

```{.output}
# A tibble: 344 × 3
   bill_length_mm bill_depth_mm flipper_length_mm
            <dbl>         <dbl>             <int>
 1           39.1          18.7               181
 2           39.5          17.4               186
 3           40.3          18                 195
 4           NA            NA                  NA
 5           36.7          19.3               193
 6           39.3          20.6               190
 7           38.9          17.8               181
 8           39.2          19.6               195
 9           34.1          18.1               193
10           42            20.2               190
# … with 334 more rows
# ℹ Use `print(n = ...)` to see more rows
```
…
- `ends_with()` - column names ending with a character string  
- `starts_with()` - column names starting with a character string  
- `contains()` - column names containing a character string 

If you are working with a well named data set, these functions should make your data selecting much simpler. And if you are making your own data, you can think of such convenient naming for your data, so your work can be easier for you and others.

Lets only pick the measurements of the bill, we are not so interested in the flipper. Then we might want to change to `starts_with()` in stead.


```r
select(penguins, starts_with("bill"))
```

```{.output}
# A tibble: 344 × 2
   bill_length_mm bill_depth_mm
            <dbl>         <dbl>
 1           39.1          18.7
 2           39.5          17.4
 3           40.3          18  
 4           NA            NA  
 5           36.7          19.3
 6           39.3          20.6
 7           38.9          17.8
 8           39.2          19.6
 9           34.1          18.1
10           42            20.2
# … with 334 more rows
# ℹ Use `print(n = ...)` to see more rows
```

The tidy selector can be combined with each other and other selectors. So you can build exactly the data you want!


```r
select(penguins, island, species, year, starts_with("bill"))
```

```{.output}
# A tibble: 344 × 5
   island    species  year bill_length_mm bill_depth_mm
   <fct>     <fct>   <int>          <dbl>         <dbl>
 1 Torgersen Adelie   2007           39.1          18.7
 2 Torgersen Adelie   2007           39.5          17.4
 3 Torgersen Adelie   2007           40.3          18  
 4 Torgersen Adelie   2007           NA            NA  
 5 Torgersen Adelie   2007           36.7          19.3
 6 Torgersen Adelie   2007           39.3          20.6
 7 Torgersen Adelie   2007           38.9          17.8
 8 Torgersen Adelie   2007           39.2          19.6
 9 Torgersen Adelie   2007           34.1          18.1
10 Torgersen Adelie   2007           42            20.2
# … with 334 more rows
# ℹ Use `print(n = ...)` to see more rows
```

::::::::::::::::::::::::::::::::::::: challenge 
## Challenge 3
Select all columns containing an underscore ("_").

:::::::::::::::::::::::::::::::::::::::: solution
## Solution 


```r
select(penguins, contains("_"))
```

```{.output}
# A tibble: 344 × 4
   bill_length_mm bill_depth_mm flipper_length_mm body_mass_g
            <dbl>         <dbl>             <int>       <int>
 1           39.1          18.7               181        3750
 2           39.5          17.4               186        3800
 3           40.3          18                 195        3250
 4           NA            NA                  NA          NA
 5           36.7          19.3               193        3450
 6           39.3          20.6               190        3650
 7           38.9          17.8               181        3625
 8           39.2          19.6               195        4675
 9           34.1          18.1               193        3475
10           42            20.2               190        4250
# … with 334 more rows
# ℹ Use `print(n = ...)` to see more rows
```
…
## Challenge 4
Select the species and sex columns, in addition to all columns ending with "mm"

:::::::::::::::::::::::::::::::::::::::: solution 

## Solution 


```r
select(penguins, species, sex, ends_with("mm"))
```

```{.output}
# A tibble: 344 × 5
   species sex    bill_length_mm bill_depth_mm flipper_length_mm
   <fct>   <fct>           <dbl>         <dbl>             <int>
 1 Adelie  male             39.1          18.7               181
 2 Adelie  female           39.5          17.4               186
 3 Adelie  female           40.3          18                 195
 4 Adelie  <NA>             NA            NA                  NA
 5 Adelie  female           36.7          19.3               193
 6 Adelie  male             39.3          20.6               190
 7 Adelie  female           38.9          17.8               181
 8 Adelie  male             39.2          19.6               195
 9 Adelie  <NA>             34.1          18.1               193
10 Adelie  <NA>             42            20.2               190
# … with 334 more rows
# ℹ Use `print(n = ...)` to see more rows
```
…
::::::::::::::::::::::::::::::::::::: challenge 
## Challenge 5
De-select all the columns with bill measurements

:::::::::::::::::::::::::::::::::::::::: solution 

## Solution 


```r
select(penguins, -starts_with("bill"))
```

```{.output}
# A tibble: 344 × 6
   species island    flipper_length_mm body_mass_g sex     year
   <fct>   <fct>                 <int>       <int> <fct>  <int>
 1 Adelie  Torgersen               181        3750 male    2007
 2 Adelie  Torgersen               186        3800 female  2007
 3 Adelie  Torgersen               195        3250 female  2007
 4 Adelie  Torgersen                NA          NA <NA>    2007
 5 Adelie  Torgersen               193        3450 female  2007
 6 Adelie  Torgersen               190        3650 male    2007
 7 Adelie  Torgersen               181        3625 female  2007
 8 Adelie  Torgersen               195        4675 male    2007
 9 Adelie  Torgersen               193        3475 <NA>    2007
10 Adelie  Torgersen               190        4250 <NA>    2007
# … with 334 more rows
# ℹ Use `print(n = ...)` to see more rows
```
…
### Tidy selections with `where`

The last tidy-selector we'll mention is `where()`. `where()` is a very special tidy selector, that uses logical evaluations to select the data. Let's have a look at it in action, and see if we can explain it better that way.

Say you are running a correlation analysis. For correlations, you need all the columns in your data to be numeric, as you cannot correlate strings or categories. Going through each individual column and seeing if it is numeric is a bit of a chore. That is where `where()` comes in!


```r
select(penguins, where(is.numeric))
```

```{.output}
# A tibble: 344 × 5
   bill_length_mm bill_depth_mm flipper_length_mm body_mass_g  year
            <dbl>         <dbl>             <int>       <int> <int>
 1           39.1          18.7               181        3750  2007
 2           39.5          17.4               186        3800  2007
 3           40.3          18                 195        3250  2007
 4           NA            NA                  NA          NA  2007
 5           36.7          19.3               193        3450  2007
 6           39.3          20.6               190        3650  2007
 7           38.9          17.8               181        3625  2007
 8           39.2          19.6               195        4675  2007
 9           34.1          18.1               193        3475  2007
10           42            20.2               190        4250  2007
# … with 334 more rows
# ℹ Use `print(n = ...)` to see more rows
```
…
```{.output}
[1] FALSE
```

Let us look at the penguins data set again

```r
penguins
```

```{.output}
# A tibble: 344 × 8
   species island    bill_length_mm bill_depth_mm flipper_…¹ body_…² sex    year
   <fct>   <fct>              <dbl>         <dbl>      <int>   <int> <fct> <int>
 1 Adelie  Torgersen           39.1          18.7        181    3750 male   2007
 2 Adelie  Torgersen           39.5          17.4        186    3800 fema…  2007
 3 Adelie  Torgersen           40.3          18          195    3250 fema…  2007
 4 Adelie  Torgersen           NA            NA           NA      NA <NA>   2007
 5 Adelie  Torgersen           36.7          19.3        193    3450 fema…  2007
 6 Adelie  Torgersen           39.3          20.6        190    3650 male   2007
 7 Adelie  Torgersen           38.9          17.8        181    3625 fema…  2007
 8 Adelie  Torgersen           39.2          19.6        195    4675 male   2007
 9 Adelie  Torgersen           34.1          18.1        193    3475 <NA>   2007
10 Adelie  Torgersen           42            20.2        190    4250 <NA>   2007
# … with 334 more rows, and abbreviated variable names ¹​flipper_length_mm,
#   ²​body_mass_g
# ℹ Use `print(n = ...)` to see more rows
```

The penguins data is stored as a `tibble`, which is a special kind of data set in R that gives a nice print out of the data.
Notice, right below the column name, there is some information in `<>` marks. This tells us the class of the columns. 
Species and island are factors, while bill columns are "double" which is a decimal numeric class. 

`where()` goes through all the columns and checks if they are numeric, and returns the ones that are. 


```r
select(penguins, where(is.numeric))
```

```{.output}
# A tibble: 344 × 5
   bill_length_mm bill_depth_mm flipper_length_mm body_mass_g  year
            <dbl>         <dbl>             <int>       <int> <int>
 1           39.1          18.7               181        3750  2007
 2           39.5          17.4               186        3800  2007
 3           40.3          18                 195        3250  2007
 4           NA            NA                  NA          NA  2007
 5           36.7          19.3               193        3450  2007
 6           39.3          20.6               190        3650  2007
 7           38.9          17.8               181        3625  2007
 8           39.2          19.6               195        4675  2007
 9           34.1          18.1               193        3475  2007
10           42            20.2               190        4250  2007
# … with 334 more rows
# ℹ Use `print(n = ...)` to see more rows
```

::::::::::::::::::::::::::::::::::::: challenge 
## Challenge 6
Select only the columns that are factors from the `penguins` data set.

:::::::::::::::::::::::::::::::::::::::: solution 
## Solution 


```r
select(penguins, where(is.factor))
```

```{.output}
# A tibble: 344 × 3
   species island    sex   
   <fct>   <fct>     <fct> 
 1 Adelie  Torgersen male  
 2 Adelie  Torgersen female
 3 Adelie  Torgersen female
 4 Adelie  Torgersen <NA>  
 5 Adelie  Torgersen female
 6 Adelie  Torgersen male  
 7 Adelie  Torgersen female
 8 Adelie  Torgersen male  
 9 Adelie  Torgersen <NA>  
10 Adelie  Torgersen <NA>  
# … with 334 more rows
# ℹ Use `print(n = ...)` to see more rows
```
…
::::::::::::::::::::::::::::::::::::: challenge 

## Challenge 7
Select the columns `island`, `species`, as well as all numeric columns from the `penguins` data set.

:::::::::::::::::::::::::::::::::::::::: solution
## Solution 


```r
select(penguins, island, species, where(is.numeric))
```

```{.output}
# A tibble: 344 × 7
   island    species bill_length_mm bill_depth_mm flipper_length…¹ body_…²  year
   <fct>     <fct>            <dbl>         <dbl>            <int>   <int> <int>
 1 Torgersen Adelie            39.1          18.7              181    3750  2007
 2 Torgersen Adelie            39.5          17.4              186    3800  2007
 3 Torgersen Adelie            40.3          18                195    3250  2007
 4 Torgersen Adelie            NA            NA                 NA      NA  2007
 5 Torgersen Adelie            36.7          19.3              193    3450  2007
 6 Torgersen Adelie            39.3          20.6              190    3650  2007
 7 Torgersen Adelie            38.9          17.8              181    3625  2007
 8 Torgersen Adelie            39.2          19.6              195    4675  2007
 9 Torgersen Adelie            34.1          18.1              193    3475  2007
10 Torgersen Adelie            42            20.2              190    4250  2007
# … with 334 more rows, and abbreviated variable names ¹​flipper_length_mm,
#   ²​body_mass_g
# ℹ Use `print(n = ...)` to see more rows
```
…
::::::::::::::::::::::::::::::::::::: challenge 
## Challenge 8
Filter the data so you only have observations from the "Dream" island.

:::::::::::::::::::::::::::::::::::::::: solution 

## Solution 


```r
filter(penguins, island == "Dream")
```

```{.output}
# A tibble: 124 × 8
   species island bill_length_mm bill_depth_mm flipper_len…¹ body_…² sex    year
   <fct>   <fct>           <dbl>         <dbl>         <int>   <int> <fct> <int>
 1 Adelie  Dream            39.5          16.7           178    3250 fema…  2007
 2 Adelie  Dream            37.2          18.1           178    3900 male   2007
 3 Adelie  Dream            39.5          17.8           188    3300 fema…  2007
 4 Adelie  Dream            40.9          18.9           184    3900 male   2007
 5 Adelie  Dream            36.4          17             195    3325 fema…  2007
 6 Adelie  Dream            39.2          21.1           196    4150 male   2007
 7 Adelie  Dream            38.8          20             190    3950 male   2007
 8 Adelie  Dream            42.2          18.5           180    3550 fema…  2007
 9 Adelie  Dream            37.6          19.3           181    3300 fema…  2007
10 Adelie  Dream            39.8          19.1           184    4650 male   2007
# … with 114 more rows, and abbreviated variable names ¹​flipper_length_mm,
#   ²​body_mass_g
# ℹ Use `print(n = ...)` to see more rows
```
…
::::::::::::::::::::::::::::::::::::: challenge 
## Challenge 9
Filter the data so you only have observations after 2008

:::::::::::::::::::::::::::::::::::::::: solution 
## Solution 


```r
filter(penguins, year >= 2008)
```

```{.output}
# A tibble: 234 × 8
   species island bill_length_mm bill_depth_mm flipper_len…¹ body_…² sex    year
   <fct>   <fct>           <dbl>         <dbl>         <int>   <int> <fct> <int>
 1 Adelie  Biscoe           39.6          17.7           186    3500 fema…  2008
 2 Adelie  Biscoe           40.1          18.9           188    4300 male   2008
 3 Adelie  Biscoe           35            17.9           190    3450 fema…  2008
 4 Adelie  Biscoe           42            19.5           200    4050 male   2008
 5 Adelie  Biscoe           34.5          18.1           187    2900 fema…  2008
 6 Adelie  Biscoe           41.4          18.6           191    3700 male   2008
 7 Adelie  Biscoe           39            17.5           186    3550 fema…  2008
 8 Adelie  Biscoe           40.6          18.8           193    3800 male   2008
 9 Adelie  Biscoe           36.5          16.6           181    2850 fema…  2008
10 Adelie  Biscoe           37.6          19.1           194    3750 male   2008
# … with 224 more rows, and abbreviated variable names ¹​flipper_length_mm,
#   ²​body_mass_g
# ℹ Use `print(n = ...)` to see more rows
```
…
