…
```r
chinstraps <- filter(penguins, species == "Chinstrap")
```

You will likely notice that when we execute this command, nothing is output to the console. That is expected. When we assign the output of a function somewhere, and everything works (*i.e.*, no errors or warnings), nothing happens in the console.

But you should be able to see the new chinstraps object in your environment, and when we type `chinstraps` in the R console, it prints our chinstraps data.


```r
chinstraps
```

```{.output}
# A tibble: 68 × 8
   species   island bill_length_mm bill_depth_mm flipper_l…¹ body_…² sex    year
   <fct>     <fct>           <dbl>         <dbl>       <int>   <int> <fct> <int>
 1 Chinstrap Dream            46.5          17.9         192    3500 fema…  2007
 2 Chinstrap Dream            50            19.5         196    3900 male   2007
 3 Chinstrap Dream            51.3          19.2         193    3650 male   2007
 4 Chinstrap Dream            45.4          18.7         188    3525 fema…  2007
 5 Chinstrap Dream            52.7          19.8         197    3725 male   2007
 6 Chinstrap Dream            45.2          17.8         198    3950 fema…  2007
 7 Chinstrap Dream            46.1          18.2         178    3250 fema…  2007
 8 Chinstrap Dream            51.3          18.2         197    3750 male   2007
 9 Chinstrap Dream            46            18.9         195    4150 fema…  2007
10 Chinstrap Dream            51.3          19.9         198    3700 male   2007
# … with 58 more rows, and abbreviated variable names ¹​flipper_length_mm,
#   ²​body_mass_g
# ℹ Use `print(n = ...)` to see more rows
```

Maybe in this chinstrap data we are also not interested in the bill measurements, so we want to remove them.


```r
chinstraps <- select(chinstraps, -starts_with("bill"))
chinstraps
```

```{.output}
# A tibble: 68 × 6
   species   island flipper_length_mm body_mass_g sex     year
   <fct>     <fct>              <int>       <int> <fct>  <int>
 1 Chinstrap Dream                192        3500 female  2007
 2 Chinstrap Dream                196        3900 male    2007
 3 Chinstrap Dream                193        3650 male    2007
 4 Chinstrap Dream                188        3525 female  2007
 5 Chinstrap Dream                197        3725 male    2007
 6 Chinstrap Dream                198        3950 female  2007
 7 Chinstrap Dream                178        3250 female  2007
 8 Chinstrap Dream                197        3750 male    2007
 9 Chinstrap Dream                195        4150 female  2007
10 Chinstrap Dream                198        3700 male    2007
# … with 58 more rows
# ℹ Use `print(n = ...)` to see more rows
```
…
Learning to read pipes is a great skill, R is not the only programming language that can do this (though the operator is different between languages, the functionality exists in many). 

We can do the entire pipe chain step by step to see what is happening. 


```r
penguins
```

```{.output}
# A tibble: 344 × 8
   species island    bill_length_mm bill_depth_mm flipper_…¹ body_…² sex    year
   <fct>   <fct>              <dbl>         <dbl>      <int>   <int> <fct> <int>
 1 Adelie  Torgersen           39.1          18.7        181    3750 male   2007
 2 Adelie  Torgersen           39.5          17.4        186    3800 fema…  2007
 3 Adelie  Torgersen           40.3          18          195    3250 fema…  2007
 4 Adelie  Torgersen           NA            NA           NA      NA <NA>   2007
 5 Adelie  Torgersen           36.7          19.3        193    3450 fema…  2007
 6 Adelie  Torgersen           39.3          20.6        190    3650 male   2007
 7 Adelie  Torgersen           38.9          17.8        181    3625 fema…  2007
 8 Adelie  Torgersen           39.2          19.6        195    4675 male   2007
 9 Adelie  Torgersen           34.1          18.1        193    3475 <NA>   2007
10 Adelie  Torgersen           42            20.2        190    4250 <NA>   2007
# … with 334 more rows, and abbreviated variable names ¹​flipper_length_mm,
#   ²​body_mass_g
# ℹ Use `print(n = ...)` to see more rows
```
::::::::::::::::::: instructor
When reading this part, read it as follows when typing:

> taking the penguins dataset

::::::::::::::::::::::::::::::


```r
penguins |> 
  filter(species == "Chinstrap")
```

```{.output}
# A tibble: 68 × 8
   species   island bill_length_mm bill_depth_mm flipper_l…¹ body_…² sex    year
   <fct>     <fct>           <dbl>         <dbl>       <int>   <int> <fct> <int>
 1 Chinstrap Dream            46.5          17.9         192    3500 fema…  2007
 2 Chinstrap Dream            50            19.5         196    3900 male   2007
 3 Chinstrap Dream            51.3          19.2         193    3650 male   2007
 4 Chinstrap Dream            45.4          18.7         188    3525 fema…  2007
 5 Chinstrap Dream            52.7          19.8         197    3725 male   2007
 6 Chinstrap Dream            45.2          17.8         198    3950 fema…  2007
 7 Chinstrap Dream            46.1          18.2         178    3250 fema…  2007
 8 Chinstrap Dream            51.3          18.2         197    3750 male   2007
 9 Chinstrap Dream            46            18.9         195    4150 fema…  2007
10 Chinstrap Dream            51.3          19.9         198    3700 male   2007
# … with 58 more rows, and abbreviated variable names ¹​flipper_length_mm,
#   ²​body_mass_g
# ℹ Use `print(n = ...)` to see more rows
```
…
> taking the penguins dataset, and then
> filtering the species column so we only have Chinstraps

::::::::::::::::::::::::::::::


```r
penguins |> 
  filter(species == "Chinstrap") |> 
  select(-starts_with("bill"))
```

```{.output}
# A tibble: 68 × 6
   species   island flipper_length_mm body_mass_g sex     year
   <fct>     <fct>              <int>       <int> <fct>  <int>
 1 Chinstrap Dream                192        3500 female  2007
 2 Chinstrap Dream                196        3900 male    2007
 3 Chinstrap Dream                193        3650 male    2007
 4 Chinstrap Dream                188        3525 female  2007
 5 Chinstrap Dream                197        3725 male    2007
 6 Chinstrap Dream                198        3950 female  2007
 7 Chinstrap Dream                178        3250 female  2007
 8 Chinstrap Dream                197        3750 male    2007
 9 Chinstrap Dream                195        4150 female  2007
10 Chinstrap Dream                198        3700 male    2007
# … with 58 more rows
# ℹ Use `print(n = ...)` to see more rows
```
…
And as before, we still are seeing the output of the command chain in the console, meaning we are not storing it.
Let us do that, again using the assignment.


```r
chinstraps <- penguins |> 
  filter(species == "Chinstrap") |> 
  select(-starts_with("bill"))

chinstraps
```

```{.output}
# A tibble: 68 × 6
   species   island flipper_length_mm body_mass_g sex     year
   <fct>     <fct>              <int>       <int> <fct>  <int>
 1 Chinstrap Dream                192        3500 female  2007
 2 Chinstrap Dream                196        3900 male    2007
 3 Chinstrap Dream                193        3650 male    2007
 4 Chinstrap Dream                188        3525 female  2007
 5 Chinstrap Dream                197        3725 male    2007
 6 Chinstrap Dream                198        3950 female  2007
 7 Chinstrap Dream                178        3250 female  2007
 8 Chinstrap Dream                197        3750 male    2007
 9 Chinstrap Dream                195        4150 female  2007
10 Chinstrap Dream                198        3700 male    2007
# … with 58 more rows
# ℹ Use `print(n = ...)` to see more rows
```
…
:::::::::::::::::::::::::::::::::::::::: solution
## Solution


```r
penguins |> 
  filter(island == "Biscoe") |> 
  select(1:4)
```

```{.output}
# A tibble: 168 × 4
   species island bill_length_mm bill_depth_mm
   <fct>   <fct>           <dbl>         <dbl>
 1 Adelie  Biscoe           37.8          18.3
 2 Adelie  Biscoe           37.7          18.7
 3 Adelie  Biscoe           35.9          19.2
 4 Adelie  Biscoe           38.2          18.1
 5 Adelie  Biscoe           38.8          17.2
 6 Adelie  Biscoe           35.3          18.9
 7 Adelie  Biscoe           40.6          18.6
 8 Adelie  Biscoe           40.5          17.9
 9 Adelie  Biscoe           37.9          18.6
10 Adelie  Biscoe           40.5          18.9
# … with 158 more rows
# ℹ Use `print(n = ...)` to see more rows
```
…
> taking the penguins dataset, and then
> arrainging the rows by the island column

::::::::::::::::::::::::::::::


```r
penguins |> 
  arrange(island)
```

```{.output}
# A tibble: 344 × 8
   species island bill_length_mm bill_depth_mm flipper_len…¹ body_…² sex    year
   <fct>   <fct>           <dbl>         <dbl>         <int>   <int> <fct> <int>
 1 Adelie  Biscoe           37.8          18.3           174    3400 fema…  2007
 2 Adelie  Biscoe           37.7          18.7           180    3600 male   2007
 3 Adelie  Biscoe           35.9          19.2           189    3800 fema…  2007
 4 Adelie  Biscoe           38.2          18.1           185    3950 male   2007
 5 Adelie  Biscoe           38.8          17.2           180    3800 male   2007
 6 Adelie  Biscoe           35.3          18.9           187    3800 fema…  2007
 7 Adelie  Biscoe           40.6          18.6           183    3550 male   2007
 8 Adelie  Biscoe           40.5          17.9           187    3200 fema…  2007
 9 Adelie  Biscoe           37.9          18.6           172    3150 fema…  2007
10 Adelie  Biscoe           40.5          18.9           180    3950 male   2007
# … with 334 more rows, and abbreviated variable names ¹​flipper_length_mm,
#   ²​body_mass_g
# ℹ Use `print(n = ...)` to see more rows
```
…
> taking the penguins dataset, and then
> arrainging the rows by the island column in descending order

::::::::::::::::::::::::::::::


```r
penguins |> 
  arrange(desc(island))
```

```{.output}
# A tibble: 344 × 8
   species island    bill_length_mm bill_depth_mm flipper_…¹ body_…² sex    year
   <fct>   <fct>              <dbl>         <dbl>      <int>   <int> <fct> <int>
 1 Adelie  Torgersen           39.1          18.7        181    3750 male   2007
 2 Adelie  Torgersen           39.5          17.4        186    3800 fema…  2007
 3 Adelie  Torgersen           40.3          18          195    3250 fema…  2007
 4 Adelie  Torgersen           NA            NA           NA      NA <NA>   2007
 5 Adelie  Torgersen           36.7          19.3        193    3450 fema…  2007
 6 Adelie  Torgersen           39.3          20.6        190    3650 male   2007
 7 Adelie  Torgersen           38.9          17.8        181    3625 fema…  2007
 8 Adelie  Torgersen           39.2          19.6        195    4675 male   2007
 9 Adelie  Torgersen           34.1          18.1        193    3475 <NA>   2007
10 Adelie  Torgersen           42            20.2        190    4250 <NA>   2007
# … with 334 more rows, and abbreviated variable names ¹​flipper_length_mm,
#   ²​body_mass_g
# ℹ Use `print(n = ...)` to see more rows
```
::::::::::::::::::::::::::::::::::::: challenge 
## Challenge 3
Arrange the penguins data set by `body_mass_g`.

:::::::::::::::::::::::::::::::::::::::: solution
## Solution


```r
penguins |> 
  arrange(body_mass_g)
```

```{.output}
# A tibble: 344 × 8
   species   island    bill_length_mm bill_depth_mm flippe…¹ body_…² sex    year
   <fct>     <fct>              <dbl>         <dbl>    <int>   <int> <fct> <int>
 1 Chinstrap Dream               46.9          16.6      192    2700 fema…  2008
 2 Adelie    Biscoe              36.5          16.6      181    2850 fema…  2008
 3 Adelie    Biscoe              36.4          17.1      184    2850 fema…  2008
 4 Adelie    Biscoe              34.5          18.1      187    2900 fema…  2008
 5 Adelie    Dream               33.1          16.1      178    2900 fema…  2008
 6 Adelie    Torgersen           38.6          17        188    2900 fema…  2009
 7 Chinstrap Dream               43.2          16.6      187    2900 fema…  2007
 8 Adelie    Biscoe              37.9          18.6      193    2925 fema…  2009
 9 Adelie    Dream               37.5          18.9      179    2975 <NA>   2007
10 Adelie    Dream               37            16.9      185    3000 fema…  2007
# … with 334 more rows, and abbreviated variable names ¹​flipper_length_mm,
#   ²​body_mass_g
# ℹ Use `print(n = ...)` to see more rows
```
…
::::::::::::::::::::::::::::::::::::: challenge 
## Challenge 4
 Arrange the penguins data set by descending order of `flipper_length_mm`.
 
:::::::::::::::::::::::::::::::::::::::: solution
## Solution


```r
penguins |> 
  arrange(desc(flipper_length_mm))
```

```{.output}
# A tibble: 344 × 8
   species island bill_length_mm bill_depth_mm flipper_len…¹ body_…² sex    year
   <fct>   <fct>           <dbl>         <dbl>         <int>   <int> <fct> <int>
 1 Gentoo  Biscoe           54.3          15.7           231    5650 male   2008
 2 Gentoo  Biscoe           50            16.3           230    5700 male   2007
 3 Gentoo  Biscoe           59.6          17             230    6050 male   2007
 4 Gentoo  Biscoe           49.8          16.8           230    5700 male   2008
 5 Gentoo  Biscoe           48.6          16             230    5800 male   2008
 6 Gentoo  Biscoe           52.1          17             230    5550 male   2009
 7 Gentoo  Biscoe           51.5          16.3           230    5500 male   2009
 8 Gentoo  Biscoe           55.1          16             230    5850 male   2009
 9 Gentoo  Biscoe           49.5          16.2           229    5800 male   2008
10 Gentoo  Biscoe           49.8          15.9           229    5950 male   2009
# … with 334 more rows, and abbreviated variable names ¹​flipper_length_mm,
#   ²​body_mass_g
# ℹ Use `print(n = ...)` to see more rows
```
…
::::::::::::::::::::::::::::::::::::: challenge 
## Challenge 5
You can arrange on multiple columns! Try arranging the penguins data set by ascending `island` and descending `flipper_length_mm`, using a comma between the two arguments.

:::::::::::::::::::::::::::::::::::::::: solution
## Solution

```r
penguins |> 
  arrange(island, desc(flipper_length_mm))
```

```{.output}
# A tibble: 344 × 8
   species island bill_length_mm bill_depth_mm flipper_len…¹ body_…² sex    year
   <fct>   <fct>           <dbl>         <dbl>         <int>   <int> <fct> <int>
 1 Gentoo  Biscoe           54.3          15.7           231    5650 male   2008
 2 Gentoo  Biscoe           50            16.3           230    5700 male   2007
 3 Gentoo  Biscoe           59.6          17             230    6050 male   2007
 4 Gentoo  Biscoe           49.8          16.8           230    5700 male   2008
 5 Gentoo  Biscoe           48.6          16             230    5800 male   2008
 6 Gentoo  Biscoe           52.1          17             230    5550 male   2009
 7 Gentoo  Biscoe           51.5          16.3           230    5500 male   2009
 8 Gentoo  Biscoe           55.1          16             230    5850 male   2009
 9 Gentoo  Biscoe           49.5          16.2           229    5800 male   2008
10 Gentoo  Biscoe           49.8          15.9           229    5950 male   2009
# … with 334 more rows, and abbreviated variable names ¹​flipper_length_mm,
#   ²​body_mass_g
# ℹ Use `print(n = ...)` to see more rows
```
…
> taking the penguins dataset, and then
> arrainging the rows by the islan column, and then 
> selecing all columns that are numeric

::::::::::::::::::::::::::::::


```r
penguins |> 
  arrange(island) |>
  select(where(is.numeric)) 
```

```{.output}
# A tibble: 344 × 5
   bill_length_mm bill_depth_mm flipper_length_mm body_mass_g  year
            <dbl>         <dbl>             <int>       <int> <int>
 1           37.8          18.3               174        3400  2007
 2           37.7          18.7               180        3600  2007
 3           35.9          19.2               189        3800  2007
 4           38.2          18.1               185        3950  2007
 5           38.8          17.2               180        3800  2007
 6           35.3          18.9               187        3800  2007
 7           40.6          18.6               183        3550  2007
 8           40.5          17.9               187        3200  2007
 9           37.9          18.6               172        3150  2007
10           40.5          18.9               180        3950  2007
# … with 334 more rows
# ℹ Use `print(n = ...)` to see more rows
```
…
:::::::::::::::::::::::::::::::::::::::: solution 
## Solution


```r
penguins |> 
  arrange(island) |>
  select(sex, island, where(is.numeric)) |>
  filter(sex == "male")
```

```{.output}
# A tibble: 168 × 7
   sex   island bill_length_mm bill_depth_mm flipper_length_mm body_mass_g  year
   <fct> <fct>           <dbl>         <dbl>             <int>       <int> <int>
 1 male  Biscoe           37.7          18.7               180        3600  2007
 2 male  Biscoe           38.2          18.1               185        3950  2007
 3 male  Biscoe           38.8          17.2               180        3800  2007
 4 male  Biscoe           40.6          18.6               183        3550  2007
 5 male  Biscoe           40.5          18.9               180        3950  2007
 6 male  Biscoe           40.1          18.9               188        4300  2008
 7 male  Biscoe           42            19.5               200        4050  2008
 8 male  Biscoe           41.4          18.6               191        3700  2008
 9 male  Biscoe           40.6          18.8               193        3800  2008
10 male  Biscoe           37.6          19.1               194        3750  2008
# … with 158 more rows
# ℹ Use `print(n = ...)` to see more rows
```

```r
penguins |> 
  filter(sex == "male") |>
  arrange(island) |>
  select(island, where(is.numeric))
```

```{.output}
# A tibble: 168 × 6
   island bill_length_mm bill_depth_mm flipper_length_mm body_mass_g  year
   <fct>           <dbl>         <dbl>             <int>       <int> <int>
 1 Biscoe           37.7          18.7               180        3600  2007
 2 Biscoe           38.2          18.1               185        3950  2007
 3 Biscoe           38.8          17.2               180        3800  2007
 4 Biscoe           40.6          18.6               183        3550  2007
 5 Biscoe           40.5          18.9               180        3950  2007
 6 Biscoe           40.1          18.9               188        4300  2008
 7 Biscoe           42            19.5               200        4050  2008
 8 Biscoe           41.4          18.6               191        3700  2008
 9 Biscoe           40.6          18.8               193        3800  2008
10 Biscoe           37.6          19.1               194        3750  2008
# … with 158 more rows
# ℹ Use `print(n = ...)` to see more rows
```
…
