…
As before, we need to start off by making sure we have the tidyverse package loaded, and the penguins dataset ready at hand.


In tidyverse, there is a single function to create longer data sets, called `pivot_longer`. Those of you who might have some prior experience with tidyverse, or you might encounter it when googling for help,  might have seen the `gather` function. This is an older function of similar capabilities which we will not cover here, as the `pivot_longer` function supersedes it. 


```r
penguins |> 
  pivot_longer(contains("_")) 
```

```{.output}
# A tibble: 1,376 × 6
   species island    sex     year name               value
   <fct>   <fct>     <fct>  <int> <chr>              <dbl>
 1 Adelie  Torgersen male    2007 bill_length_mm      39.1
 2 Adelie  Torgersen male    2007 bill_depth_mm       18.7
 3 Adelie  Torgersen male    2007 flipper_length_mm  181  
 4 Adelie  Torgersen male    2007 body_mass_g       3750  
 5 Adelie  Torgersen female  2007 bill_length_mm      39.5
 6 Adelie  Torgersen female  2007 bill_depth_mm       17.4
 7 Adelie  Torgersen female  2007 flipper_length_mm  186  
 8 Adelie  Torgersen female  2007 body_mass_g       3800  
 9 Adelie  Torgersen female  2007 bill_length_mm      40.3
10 Adelie  Torgersen female  2007 bill_depth_mm       18  
# … with 1,366 more rows
# ℹ Use `print(n = ...)` to see more rows
```
…
::::::::::::::::::::::::::::::::::::: challenge 
## Challenge 1
Pivot longer all columns ending with "mm" .

:::::::::::::::::::::::::::::::::::::::: solution 
## Solution


```r
penguins |>
  pivot_longer(ends_with("mm"))
```

```{.output}
# A tibble: 1,032 × 7
   species island    body_mass_g sex     year name              value
   <fct>   <fct>           <int> <fct>  <int> <chr>             <dbl>
 1 Adelie  Torgersen        3750 male    2007 bill_length_mm     39.1
 2 Adelie  Torgersen        3750 male    2007 bill_depth_mm      18.7
 3 Adelie  Torgersen        3750 male    2007 flipper_length_mm 181  
 4 Adelie  Torgersen        3800 female  2007 bill_length_mm     39.5
 5 Adelie  Torgersen        3800 female  2007 bill_depth_mm      17.4
 6 Adelie  Torgersen        3800 female  2007 flipper_length_mm 186  
 7 Adelie  Torgersen        3250 female  2007 bill_length_mm     40.3
 8 Adelie  Torgersen        3250 female  2007 bill_depth_mm      18  
 9 Adelie  Torgersen        3250 female  2007 flipper_length_mm 195  
10 Adelie  Torgersen          NA <NA>    2007 bill_length_mm     NA  
# … with 1,022 more rows
# ℹ Use `print(n = ...)` to see more rows
```
…
::::::::::::::::::::::::::::::::::::: challenge 
## Challenge 2
Pivot the penguins data so that all the bill measurements are in the same column.

:::::::::::::::::::::::::::::::::::::::: solution 
## Solution


```r
penguins |>
  pivot_longer(starts_with("bill"))
```

```{.output}
# A tibble: 688 × 8
   species island    flipper_length_mm body_mass_g sex     year name       value
   <fct>   <fct>                 <int>       <int> <fct>  <int> <chr>      <dbl>
 1 Adelie  Torgersen               181        3750 male    2007 bill_leng…  39.1
 2 Adelie  Torgersen               181        3750 male    2007 bill_dept…  18.7
 3 Adelie  Torgersen               186        3800 female  2007 bill_leng…  39.5
 4 Adelie  Torgersen               186        3800 female  2007 bill_dept…  17.4
 5 Adelie  Torgersen               195        3250 female  2007 bill_leng…  40.3
 6 Adelie  Torgersen               195        3250 female  2007 bill_dept…  18  
 7 Adelie  Torgersen                NA          NA <NA>    2007 bill_leng…  NA  
 8 Adelie  Torgersen                NA          NA <NA>    2007 bill_dept…  NA  
 9 Adelie  Torgersen               193        3450 female  2007 bill_leng…  36.7
10 Adelie  Torgersen               193        3450 female  2007 bill_dept…  19.3
# … with 678 more rows
# ℹ Use `print(n = ...)` to see more rows
```
…
::::::::::::::::::::::::::::::::::::: challenge 
## Challenge 3
As mentioned, pivot_longer accepts tidy-selectors. Pivot longer all numerical columns.

:::::::::::::::::::::::::::::::::::::::: solution 
## Solution


```r
penguins |>
  pivot_longer(where(is.numeric))
```

```{.output}
# A tibble: 1,720 × 5
   species island    sex    name               value
   <fct>   <fct>     <fct>  <chr>              <dbl>
 1 Adelie  Torgersen male   bill_length_mm      39.1
 2 Adelie  Torgersen male   bill_depth_mm       18.7
 3 Adelie  Torgersen male   flipper_length_mm  181  
 4 Adelie  Torgersen male   body_mass_g       3750  
 5 Adelie  Torgersen male   year              2007  
 6 Adelie  Torgersen female bill_length_mm      39.5
 7 Adelie  Torgersen female bill_depth_mm       17.4
 8 Adelie  Torgersen female flipper_length_mm  186  
 9 Adelie  Torgersen female body_mass_g       3800  
10 Adelie  Torgersen female year              2007  
# … with 1,710 more rows
# ℹ Use `print(n = ...)` to see more rows
```
…
## Altering names during pivots

While often you can get away with leaving the default naming of the two columns as is, especially if you are just doing something quick like making a plot, most times you will likely want to control the names of your two new columns.


```r
penguins |> 
  pivot_longer(contains("_"),
               names_to = "columns",
               values_to = "content")
```

```{.output}
# A tibble: 1,376 × 6
   species island    sex     year columns           content
   <fct>   <fct>     <fct>  <int> <chr>               <dbl>
 1 Adelie  Torgersen male    2007 bill_length_mm       39.1
 2 Adelie  Torgersen male    2007 bill_depth_mm        18.7
 3 Adelie  Torgersen male    2007 flipper_length_mm   181  
 4 Adelie  Torgersen male    2007 body_mass_g        3750  
 5 Adelie  Torgersen female  2007 bill_length_mm       39.5
 6 Adelie  Torgersen female  2007 bill_depth_mm        17.4
 7 Adelie  Torgersen female  2007 flipper_length_mm   186  
 8 Adelie  Torgersen female  2007 body_mass_g        3800  
 9 Adelie  Torgersen female  2007 bill_length_mm       40.3
10 Adelie  Torgersen female  2007 bill_depth_mm        18  
# … with 1,366 more rows
# ℹ Use `print(n = ...)` to see more rows
```

Here, we change the "names" to "columns" and "values" to "content". The pivot defaults are usually quite sensible, making it clear what is the column names and what are the cell values. But English might not be your working language or you might find something more obvious for your self. 

But we have even more power in the renaming of columns. Pivots actually have quite a lot of options, making it possible for us to create outputs looking just like we want. Notice how the names of the columns we pivoted follow a specific structure. First is the name of the body part, then the type of measurement, then the unit of the measurement. This clear logic we can use to our advantage.


```r
penguins |> 
  pivot_longer(contains("_"),
               names_to = c("part", "measure" , "unit"),
               names_sep = "_")
```

```{.output}
# A tibble: 1,376 × 8
   species island    sex     year part    measure unit   value
   <fct>   <fct>     <fct>  <int> <chr>   <chr>   <chr>  <dbl>
 1 Adelie  Torgersen male    2007 bill    length  mm      39.1
 2 Adelie  Torgersen male    2007 bill    depth   mm      18.7
 3 Adelie  Torgersen male    2007 flipper length  mm     181  
 4 Adelie  Torgersen male    2007 body    mass    g     3750  
 5 Adelie  Torgersen female  2007 bill    length  mm      39.5
 6 Adelie  Torgersen female  2007 bill    depth   mm      17.4
 7 Adelie  Torgersen female  2007 flipper length  mm     186  
 8 Adelie  Torgersen female  2007 body    mass    g     3800  
 9 Adelie  Torgersen female  2007 bill    length  mm      40.3
10 Adelie  Torgersen female  2007 bill    depth   mm      18  
# … with 1,366 more rows
# ℹ Use `print(n = ...)` to see more rows
```
…
:::::::::::::::::::::::::::::::::::::::: solution 
## Solution


```r
penguins |>
    pivot_longer(starts_with("bill"),
               names_to = c("part", "measure" , "unit"),
               names_sep = "_")
```

```{.output}
# A tibble: 688 × 10
   species island    flipper_len…¹ body_…² sex    year part  measure unit  value
   <fct>   <fct>             <int>   <int> <fct> <int> <chr> <chr>   <chr> <dbl>
 1 Adelie  Torgersen           181    3750 male   2007 bill  length  mm     39.1
 2 Adelie  Torgersen           181    3750 male   2007 bill  depth   mm     18.7
 3 Adelie  Torgersen           186    3800 fema…  2007 bill  length  mm     39.5
 4 Adelie  Torgersen           186    3800 fema…  2007 bill  depth   mm     17.4
 5 Adelie  Torgersen           195    3250 fema…  2007 bill  length  mm     40.3
 6 Adelie  Torgersen           195    3250 fema…  2007 bill  depth   mm     18  
 7 Adelie  Torgersen            NA      NA <NA>   2007 bill  length  mm     NA  
 8 Adelie  Torgersen            NA      NA <NA>   2007 bill  depth   mm     NA  
 9 Adelie  Torgersen           193    3450 fema…  2007 bill  length  mm     36.7
10 Adelie  Torgersen           193    3450 fema…  2007 bill  depth   mm     19.3
# … with 678 more rows, and abbreviated variable names ¹​flipper_length_mm,
#   ²​body_mass_g
# ℹ Use `print(n = ...)` to see more rows
```
…
:::::::::::::::::::::::::::::::::::::::: solution 
## Solution


```r
penguins |>
    pivot_longer(starts_with("bill"),
               names_prefix = "bill_")
```

```{.output}
# A tibble: 688 × 8
   species island    flipper_length_mm body_mass_g sex     year name      value
   <fct>   <fct>                 <int>       <int> <fct>  <int> <chr>     <dbl>
 1 Adelie  Torgersen               181        3750 male    2007 length_mm  39.1
 2 Adelie  Torgersen               181        3750 male    2007 depth_mm   18.7
 3 Adelie  Torgersen               186        3800 female  2007 length_mm  39.5
 4 Adelie  Torgersen               186        3800 female  2007 depth_mm   17.4
 5 Adelie  Torgersen               195        3250 female  2007 length_mm  40.3
 6 Adelie  Torgersen               195        3250 female  2007 depth_mm   18  
 7 Adelie  Torgersen                NA          NA <NA>    2007 length_mm  NA  
 8 Adelie  Torgersen                NA          NA <NA>    2007 depth_mm   NA  
 9 Adelie  Torgersen               193        3450 female  2007 length_mm  36.7
10 Adelie  Torgersen               193        3450 female  2007 depth_mm   19.3
# … with 678 more rows
# ℹ Use `print(n = ...)` to see more rows
```
…
:::::::::::::::::::::::::::::::::::::::: solution 
## Solution


```r
penguins |>
    pivot_longer(starts_with("bill"),
              names_prefix = "bill_",
              names_to = c("bill_measure" , "unit"),
              names_sep = "_")
```

```{.output}
# A tibble: 688 × 9
   species island    flipper_length_mm body_ma…¹ sex    year bill_…² unit  value
   <fct>   <fct>                 <int>     <int> <fct> <int> <chr>   <chr> <dbl>
 1 Adelie  Torgersen               181      3750 male   2007 length  mm     39.1
 2 Adelie  Torgersen               181      3750 male   2007 depth   mm     18.7
 3 Adelie  Torgersen               186      3800 fema…  2007 length  mm     39.5
 4 Adelie  Torgersen               186      3800 fema…  2007 depth   mm     17.4
 5 Adelie  Torgersen               195      3250 fema…  2007 length  mm     40.3
 6 Adelie  Torgersen               195      3250 fema…  2007 depth   mm     18  
 7 Adelie  Torgersen                NA        NA <NA>   2007 length  mm     NA  
 8 Adelie  Torgersen                NA        NA <NA>   2007 depth   mm     NA  
 9 Adelie  Torgersen               193      3450 fema…  2007 length  mm     36.7
10 Adelie  Torgersen               193      3450 fema…  2007 depth   mm     19.3
# … with 678 more rows, and abbreviated variable names ¹​body_mass_g,
#   ²​bill_measure
# ℹ Use `print(n = ...)` to see more rows
```
…
## Cleaning up values during pivots.

When pivoting, it is common that quite some `NA` values appear in the values column. 
We can remove these immediately by making the argument `values_drop_na` be  `TRUE`


```r
penguins |> 
  pivot_longer(starts_with("bill"),
               values_drop_na = TRUE)
```

```{.output}
# A tibble: 684 × 8
   species island    flipper_length_mm body_mass_g sex     year name       value
   <fct>   <fct>                 <int>       <int> <fct>  <int> <chr>      <dbl>
 1 Adelie  Torgersen               181        3750 male    2007 bill_leng…  39.1
 2 Adelie  Torgersen               181        3750 male    2007 bill_dept…  18.7
 3 Adelie  Torgersen               186        3800 female  2007 bill_leng…  39.5
 4 Adelie  Torgersen               186        3800 female  2007 bill_dept…  17.4
 5 Adelie  Torgersen               195        3250 female  2007 bill_leng…  40.3
 6 Adelie  Torgersen               195        3250 female  2007 bill_dept…  18  
 7 Adelie  Torgersen               193        3450 female  2007 bill_leng…  36.7
 8 Adelie  Torgersen               193        3450 female  2007 bill_dept…  19.3
 9 Adelie  Torgersen               190        3650 male    2007 bill_leng…  39.3
10 Adelie  Torgersen               190        3650 male    2007 bill_dept…  20.6
# … with 674 more rows
# ℹ Use `print(n = ...)` to see more rows
```
…
We should put everything together and create a new object that is our long formatted penguin data set.


```r
penguins_long <- penguins |> 
  pivot_longer(contains("_"),
               names_to = c("part", "measure" , "unit"),
               names_sep = "_",
               values_drop_na = TRUE)
penguins_long
```

```{.output}
# A tibble: 1,368 × 8
   species island    sex     year part    measure unit   value
   <fct>   <fct>     <fct>  <int> <chr>   <chr>   <chr>  <dbl>
 1 Adelie  Torgersen male    2007 bill    length  mm      39.1
 2 Adelie  Torgersen male    2007 bill    depth   mm      18.7
 3 Adelie  Torgersen male    2007 flipper length  mm     181  
 4 Adelie  Torgersen male    2007 body    mass    g     3750  
 5 Adelie  Torgersen female  2007 bill    length  mm      39.5
 6 Adelie  Torgersen female  2007 bill    depth   mm      17.4
 7 Adelie  Torgersen female  2007 flipper length  mm     186  
 8 Adelie  Torgersen female  2007 body    mass    g     3800  
 9 Adelie  Torgersen female  2007 bill    length  mm      40.3
10 Adelie  Torgersen female  2007 bill    depth   mm      18  
# … with 1,358 more rows
# ℹ Use `print(n = ...)` to see more rows
```
…
While long data formats are ideal when you are working in the tidyverse, you might encounter packages or pipelines in R that require wide-format data. Knowing how to transform a long data set into wide is just as important a knowing how to go from wide to long. 
You will also experience that this skill can be convenient when creating data summaries tomorrow.

Before we start using the penguins_longer dataset we made, let us make another simpler longer data set, for the first look a the pivor wider function.


```r
penguins_long_simple <- penguins |> 
  pivot_longer(contains("_"))
penguins_long_simple
```

```{.output}
# A tibble: 1,376 × 6
   species island    sex     year name               value
   <fct>   <fct>     <fct>  <int> <chr>              <dbl>
 1 Adelie  Torgersen male    2007 bill_length_mm      39.1
 2 Adelie  Torgersen male    2007 bill_depth_mm       18.7
 3 Adelie  Torgersen male    2007 flipper_length_mm  181  
 4 Adelie  Torgersen male    2007 body_mass_g       3750  
 5 Adelie  Torgersen female  2007 bill_length_mm      39.5
 6 Adelie  Torgersen female  2007 bill_depth_mm       17.4
 7 Adelie  Torgersen female  2007 flipper_length_mm  186  
 8 Adelie  Torgersen female  2007 body_mass_g       3800  
 9 Adelie  Torgersen female  2007 bill_length_mm      40.3
10 Adelie  Torgersen female  2007 bill_depth_mm       18  
# … with 1,366 more rows
# ℹ Use `print(n = ...)` to see more rows
```
…
```{.warning}
Warning: Values from `value` are not uniquely identified; output will contain list-cols.
* Use `values_fn = list` to suppress this warning.
* Use `values_fn = {summary_fun}` to summarise duplicates.
* Use the following dplyr code to identify duplicates.
  {data} %>%
    dplyr::group_by(species, island, sex, year, name) %>%
    dplyr::summarise(n = dplyr::n(), .groups = "drop") %>%
    dplyr::filter(n > 1L)
```

```{.output}
# A tibble: 35 × 8
   species island    sex     year bill_length_mm bill_depth_mm flipper…¹ body_…²
   <fct>   <fct>     <fct>  <int> <list>         <list>        <list>    <list> 
 1 Adelie  Torgersen male    2007 <dbl [7]>      <dbl [7]>     <dbl [7]> <dbl>  
 2 Adelie  Torgersen female  2007 <dbl [8]>      <dbl [8]>     <dbl [8]> <dbl>  
 3 Adelie  Torgersen <NA>    2007 <dbl [5]>      <dbl [5]>     <dbl [5]> <dbl>  
 4 Adelie  Biscoe    female  2007 <dbl [5]>      <dbl [5]>     <dbl [5]> <dbl>  
 5 Adelie  Biscoe    male    2007 <dbl [5]>      <dbl [5]>     <dbl [5]> <dbl>  
 6 Adelie  Dream     female  2007 <dbl [9]>      <dbl [9]>     <dbl [9]> <dbl>  
 7 Adelie  Dream     male    2007 <dbl [10]>     <dbl [10]>    <dbl>     <dbl>  
 8 Adelie  Dream     <NA>    2007 <dbl [1]>      <dbl [1]>     <dbl [1]> <dbl>  
 9 Adelie  Biscoe    female  2008 <dbl [9]>      <dbl [9]>     <dbl [9]> <dbl>  
10 Adelie  Biscoe    male    2008 <dbl [9]>      <dbl [9]>     <dbl [9]> <dbl>  
# … with 25 more rows, and abbreviated variable names ¹​flipper_length_mm,
#   ²​body_mass_g
# ℹ Use `print(n = ...)` to see more rows
```

ok what is happening here? It does not at all look as we expected! Our columns have something very weird in them, with this strange `<dbl [7]>` thing, what does that mean?
Lets look at the warning message our code gave us and see if we can figure it out.
**Values are not uniquely identified; output will contain list-cols**. We are being told the pivot wider cannot uniquely identify the observations, and so cannot place a single value into the columns. Is returning lists of values. 

yikes! That's super annoying. Let's go back to our penguins data set and see if we can do something to help.


```r
penguins
```

```{.output}
# A tibble: 344 × 8
   species island    bill_length_mm bill_depth_mm flipper_…¹ body_…² sex    year
   <fct>   <fct>              <dbl>         <dbl>      <int>   <int> <fct> <int>
 1 Adelie  Torgersen           39.1          18.7        181    3750 male   2007
 2 Adelie  Torgersen           39.5          17.4        186    3800 fema…  2007
 3 Adelie  Torgersen           40.3          18          195    3250 fema…  2007
 4 Adelie  Torgersen           NA            NA           NA      NA <NA>   2007
 5 Adelie  Torgersen           36.7          19.3        193    3450 fema…  2007
 6 Adelie  Torgersen           39.3          20.6        190    3650 male   2007
 7 Adelie  Torgersen           38.9          17.8        181    3625 fema…  2007
 8 Adelie  Torgersen           39.2          19.6        195    4675 male   2007
 9 Adelie  Torgersen           34.1          18.1        193    3475 <NA>   2007
10 Adelie  Torgersen           42            20.2        190    4250 <NA>   2007
# … with 334 more rows, and abbreviated variable names ¹​flipper_length_mm,
#   ²​body_mass_g
# ℹ Use `print(n = ...)` to see more rows
```
…
