…
Lets say we want to summarise _all_ the measurement variables, i.e. all the columns containing "_". 
We've learned about summaries and grouped summaries. 
Can you think of a way we can do that using the things we've learned?


```r
penguins |> 
  pivot_longer(contains("_"))
```

```{.output}
# A tibble: 1,376 × 6
   species island    sex     year name               value
   <fct>   <fct>     <fct>  <int> <chr>              <dbl>
 1 Adelie  Torgersen male    2007 bill_length_mm      39.1
 2 Adelie  Torgersen male    2007 bill_depth_mm       18.7
 3 Adelie  Torgersen male    2007 flipper_length_mm  181  
 4 Adelie  Torgersen male    2007 body_mass_g       3750  
 5 Adelie  Torgersen female  2007 bill_length_mm      39.5
 6 Adelie  Torgersen female  2007 bill_depth_mm       17.4
 7 Adelie  Torgersen female  2007 flipper_length_mm  186  
 8 Adelie  Torgersen female  2007 body_mass_g       3800  
 9 Adelie  Torgersen female  2007 bill_length_mm      40.3
10 Adelie  Torgersen female  2007 bill_depth_mm       18  
# … with 1,366 more rows
# ℹ Use `print(n = ...)` to see more rows
```
…
```{.output}
`summarise()` has grouped output by 'name', 'species', 'island'. You can
override using the `.groups` argument.
```

```r
penguins_sum
```

```{.output}
# A tibble: 60 × 9
   name          species   island     year  mean    sd   min   max     n
   <chr>         <fct>     <fct>     <int> <dbl> <dbl> <dbl> <dbl> <int>
 1 bill_depth_mm Adelie    Biscoe     2007  18.4 0.585  17.2  19.2    10
 2 bill_depth_mm Adelie    Biscoe     2008  18.1 1.20   16.2  21.1    18
 3 bill_depth_mm Adelie    Biscoe     2009  18.6 1.44   16    20.7    16
 4 bill_depth_mm Adelie    Dream      2007  18.7 1.21   16.7  21.2    20
 5 bill_depth_mm Adelie    Dream      2008  18.3 0.993  16.1  20.3    16
 6 bill_depth_mm Adelie    Dream      2009  17.7 0.994  15.5  20.1    20
 7 bill_depth_mm Adelie    Torgersen  2007  19.0 1.47   17.1  21.5    19
 8 bill_depth_mm Adelie    Torgersen  2008  18.1 1.11   16.1  19.4    16
 9 bill_depth_mm Adelie    Torgersen  2009  18.0 1.20   15.9  20.5    16
10 bill_depth_mm Chinstrap Dream      2007  18.5 1.00   16.6  20.3    26
# … with 50 more rows
# ℹ Use `print(n = ...)` to see more rows
```
…
