R and the Tidyverse for working with data: Data manipulation across columns
…
One way, is to write it our entirely. Let just pretend there is a good reason to get the sum of bill length and bill depth. Let us also make a subsetted sample with just the bill measurements so we cab easily see what we are doing. We can do that in the following way.

R

penguins_s <- penguins |>
    select(species, starts_with("bill"))

penguins_s |> 
  mutate(
    bill_sum = bill_depth_mm + bill_length_mm
    )

OUTPUT

# A tibble: 344 × 4
   species bill_length_mm bill_depth_mm bill_sum
   <fct>            <dbl>         <dbl>    <dbl>
 1 Adelie            39.1          18.7     57.8
 2 Adelie            39.5          17.4     56.9
 3 Adelie            40.3          18       58.3
 4 Adelie            NA            NA       NA  
 5 Adelie            36.7          19.3     56  
 6 Adelie            39.3          20.6     59.9
 7 Adelie            38.9          17.8     56.7
 8 Adelie            39.2          19.6     58.8
 9 Adelie            34.1          18.1     52.2
10 Adelie            42            20.2     62.2
# … with 334 more rows

We’ve seen similar types of operations before. But what if you want to sum 20 columns, you would need to type our all 20 column names! Again, tedious. We have a special type of operations we can do to get that easily. We will use the function sum to calculate the sum of several variables when using this pipeline.

R

penguins_s |>
    mutate(bill_sum = sum(c_across(starts_with("bill"))))

OUTPUT

# A tibble: 344 × 4
   species bill_length_mm bill_depth_mm bill_sum
   <fct>            <dbl>         <dbl>    <dbl>
 1 Adelie            39.1          18.7       NA
 2 Adelie            39.5          17.4       NA
 3 Adelie            40.3          18         NA
 4 Adelie            NA            NA         NA
 5 Adelie            36.7          19.3       NA
 6 Adelie            39.3          20.6       NA
 7 Adelie            38.9          17.8       NA
 8 Adelie            39.2          19.6       NA
 9 Adelie            34.1          18.1       NA
10 Adelie            42            20.2       NA
# … with 334 more rows

hm, that is not what we expected. I know why, but the reason is not always easy to understand. By default, c_across will summarise all the rows for all the bill columns, and give a single value for the entire data set. There are some NAs the entire data set, so it returns NA. So how can we force it to work in a row-wise fashion? We can apply a function called rowwise() which is a special type of group_by that groups your data by each row, so each row is its own group. Then, c_across() will calculate the mean of the columns just for that group (i.e. row in this case).

R

penguins_s |>
    rowwise() |>
    mutate(bill_sum = sum(c_across(starts_with("bill"))))

OUTPUT

# A tibble: 344 × 4
# Rowwise: 
   species bill_length_mm bill_depth_mm bill_sum
   <fct>            <dbl>         <dbl>    <dbl>
 1 Adelie            39.1          18.7     57.8
 2 Adelie            39.5          17.4     56.9
 3 Adelie            40.3          18       58.3
 4 Adelie            NA            NA       NA  
 5 Adelie            36.7          19.3     56  
 6 Adelie            39.3          20.6     59.9
 7 Adelie            38.9          17.8     56.7
 8 Adelie            39.2          19.6     58.8
 9 Adelie            34.1          18.1     52.2
10 Adelie            42            20.2     62.2
# … with 334 more rows

Now we can see that we get the row sum of all the bill columns for each row, and the tibble tells us it is “Rowwise”. To stop the data set being rowwise, we can use the ungroup() function we learned before.

R

penguins_s |>
    rowwise() |>
    mutate(bill_sum = sum(c_across(starts_with("bill")))) |>
    ungroup()

OUTPUT

# A tibble: 344 × 4
   species bill_length_mm bill_depth_mm bill_sum
   <fct>            <dbl>         <dbl>    <dbl>
 1 Adelie            39.1          18.7     57.8
 2 Adelie            39.5          17.4     56.9
 3 Adelie            40.3          18       58.3
 4 Adelie            NA            NA       NA  
 5 Adelie            36.7          19.3     56  
 6 Adelie            39.3          20.6     59.9
 7 Adelie            38.9          17.8     56.7
 8 Adelie            39.2          19.6     58.8
 9 Adelie            34.1          18.1     52.2
10 Adelie            42            20.2     62.2
# … with 334 more rows
…
Calculate the mean of all the columns with millimeter measurements, an call it mm_mean, for each row of data.

  Show me the solution

R

penguins |> 
  rowwise() |>
  mutate(
    mm_mean = mean(c_across(ends_with("mm")))
  )

OUTPUT

# A tibble: 344 × 9
# Rowwise: 
   species island    bill_length_mm bill_depth_mm flipper_length_mm body_mass_g
   <fct>   <fct>              <dbl>         <dbl>             <int>       <int>
 1 Adelie  Torgersen           39.1          18.7               181        3750
 2 Adelie  Torgersen           39.5          17.4               186        3800
 3 Adelie  Torgersen           40.3          18                 195        3250
 4 Adelie  Torgersen           NA            NA                  NA          NA
 5 Adelie  Torgersen           36.7          19.3               193        3450
 6 Adelie  Torgersen           39.3          20.6               190        3650
 7 Adelie  Torgersen           38.9          17.8               181        3625
 8 Adelie  Torgersen           39.2          19.6               195        4675
 9 Adelie  Torgersen           34.1          18.1               193        3475
10 Adelie  Torgersen           42            20.2               190        4250
# … with 334 more rows, and 3 more variables: sex <fct>, year <int>,
#   mm_mean <dbl>
…
  Show me the solution

R

penguins |> 
  rowwise() |>
  mutate(
    mm_mean = mean(c_across(ends_with("mm"))),
  ) |>
  group_by(species) |>
  mutate(mm_mean_species = mean(mm_mean, na.rm = TRUE))

OUTPUT

# A tibble: 344 × 10
# Groups:   species [3]
   species island    bill_length_mm bill_depth_mm flipper_length_mm body_mass_g
   <fct>   <fct>              <dbl>         <dbl>             <int>       <int>
 1 Adelie  Torgersen           39.1          18.7               181        3750
 2 Adelie  Torgersen           39.5          17.4               186        3800
 3 Adelie  Torgersen           40.3          18                 195        3250
 4 Adelie  Torgersen           NA            NA                  NA          NA
 5 Adelie  Torgersen           36.7          19.3               193        3450
 6 Adelie  Torgersen           39.3          20.6               190        3650
 7 Adelie  Torgersen           38.9          17.8               181        3625
 8 Adelie  Torgersen           39.2          19.6               195        4675
 9 Adelie  Torgersen           34.1          18.1               193        3475
10 Adelie  Torgersen           42            20.2               190        4250
# … with 334 more rows, and 4 more variables: sex <fct>, year <int>,
#   mm_mean <dbl>, mm_mean_species <dbl>
…
In this simple example we might have done so:

R

penguins |> 
  mutate(
    bill_depth_sc = scale(bill_depth_mm),
    bill_length_sc = scale(bill_length_mm),
    flipper_length_sc = scale(flipper_length_mm)
)

OUTPUT

# A tibble: 344 × 11
   species island    bill_length_mm bill_depth_mm flipper_length_mm body_mass_g
   <fct>   <fct>              <dbl>         <dbl>             <int>       <int>
 1 Adelie  Torgersen           39.1          18.7               181        3750
 2 Adelie  Torgersen           39.5          17.4               186        3800
 3 Adelie  Torgersen           40.3          18                 195        3250
 4 Adelie  Torgersen           NA            NA                  NA          NA
 5 Adelie  Torgersen           36.7          19.3               193        3450
 6 Adelie  Torgersen           39.3          20.6               190        3650
 7 Adelie  Torgersen           38.9          17.8               181        3625
 8 Adelie  Torgersen           39.2          19.6               195        4675
 9 Adelie  Torgersen           34.1          18.1               193        3475
10 Adelie  Torgersen           42            20.2               190        4250
# … with 334 more rows, and 5 more variables: sex <fct>, year <int>,
#   bill_depth_sc <dbl[,1]>, bill_length_sc <dbl[,1]>,
#   flipper_length_sc <dbl[,1]>

Its just three columns, we can do that. But let us imagine we have 20 of these, typing all that out is tedious and error prone. You might forget to alter the name or keep the same type of naming convention. We are only human, we easily make mistakes. With {dplyr}’s across() we can combine our knowledge of tidy-selectors and mutate to create the entire transformation for these columns at once.

R

penguins |> 
  mutate(across(.cols = ends_with("mm"), 
                .fns = scale))

OUTPUT

# A tibble: 344 × 8
   species island bill_length_mm[… bill_depth_mm[,… flipper_length_… body_mass_g
   <fct>   <fct>             <dbl>            <dbl>            <dbl>       <int>
 1 Adelie  Torge…           -0.883            0.784           -1.42         3750
 2 Adelie  Torge…           -0.810            0.126           -1.06         3800
 3 Adelie  Torge…           -0.663            0.430           -0.421        3250
 4 Adelie  Torge…           NA               NA               NA              NA
 5 Adelie  Torge…           -1.32             1.09            -0.563        3450
 6 Adelie  Torge…           -0.847            1.75            -0.776        3650
 7 Adelie  Torge…           -0.920            0.329           -1.42         3625
 8 Adelie  Torge…           -0.865            1.24            -0.421        4675
 9 Adelie  Torge…           -1.80             0.480           -0.563        3475
10 Adelie  Torge…           -0.352            1.54            -0.776        4250
# … with 334 more rows, and 2 more variables: sex <fct>, year <int>
…
but often, we’d like to keep the original but add the new variants. We can do that to within the across!

R

penguins |> 
  mutate(across(.cols = ends_with("mm"),
                .fns = scale, 
                .names = "{.col}_sc")) |> 
  select(contains("mm"))

OUTPUT

# A tibble: 344 × 6
   bill_length_mm bill_depth_mm flipper_length_mm bill_length_mm_sc[,1]
            <dbl>         <dbl>             <int>                 <dbl>
 1           39.1          18.7               181                -0.883
 2           39.5          17.4               186                -0.810
 3           40.3          18                 195                -0.663
 4           NA            NA                  NA                NA    
 5           36.7          19.3               193                -1.32 
 6           39.3          20.6               190                -0.847
 7           38.9          17.8               181                -0.920
 8           39.2          19.6               195                -0.865
 9           34.1          18.1               193                -1.80 
10           42            20.2               190                -0.352
# … with 334 more rows, and 2 more variables: bill_depth_mm_sc <dbl[,1]>,
#   flipper_length_mm_sc <dbl[,1]>
…
Transform all the colmns with an underscore in their name so they are scaled, and add the prefix sc_ to the columns names.

  Show me the solution

R

penguins |> 
  mutate(across(.cols = contains("_"),
                .fns = scale, 
                .names = "sc_{.col}"))

OUTPUT

# A tibble: 344 × 12
   species island    bill_length_mm bill_depth_mm flipper_length_mm body_mass_g
   <fct>   <fct>              <dbl>         <dbl>             <int>       <int>
 1 Adelie  Torgersen           39.1          18.7               181        3750
 2 Adelie  Torgersen           39.5          17.4               186        3800
 3 Adelie  Torgersen           40.3          18                 195        3250
 4 Adelie  Torgersen           NA            NA                  NA          NA
 5 Adelie  Torgersen           36.7          19.3               193        3450
 6 Adelie  Torgersen           39.3          20.6               190        3650
 7 Adelie  Torgersen           38.9          17.8               181        3625
 8 Adelie  Torgersen           39.2          19.6               195        4675
 9 Adelie  Torgersen           34.1          18.1               193        3475
10 Adelie  Torgersen           42            20.2               190        4250
# … with 334 more rows, and 6 more variables: sex <fct>, year <int>,
#   sc_bill_length_mm <dbl[,1]>, sc_bill_depth_mm <dbl[,1]>,
#   sc_flipper_length_mm <dbl[,1]>, sc_body_mass_g <dbl[,1]>
…
  Show me the solution

R

penguins |> 
  mutate(
    across(.cols = contains("_"),
           .fns = scale, 
           .names = "sc_{.col}"),
    body_mass_kg = body_mass_g / 1000
  )

OUTPUT

# A tibble: 344 × 13
   species island    bill_length_mm bill_depth_mm flipper_length_mm body_mass_g
   <fct>   <fct>              <dbl>         <dbl>             <int>       <int>
 1 Adelie  Torgersen           39.1          18.7               181        3750
 2 Adelie  Torgersen           39.5          17.4               186        3800
 3 Adelie  Torgersen           40.3          18                 195        3250
 4 Adelie  Torgersen           NA            NA                  NA          NA
 5 Adelie  Torgersen           36.7          19.3               193        3450
 6 Adelie  Torgersen           39.3          20.6               190        3650
 7 Adelie  Torgersen           38.9          17.8               181        3625
 8 Adelie  Torgersen           39.2          19.6               195        4675
 9 Adelie  Torgersen           34.1          18.1               193        3475
10 Adelie  Torgersen           42            20.2               190        4250
# … with 334 more rows, and 7 more variables: sex <fct>, year <int>,
#   sc_bill_length_mm <dbl[,1]>, sc_bill_depth_mm <dbl[,1]>,
#   sc_flipper_length_mm <dbl[,1]>, sc_body_mass_g <dbl[,1]>,
#   body_mass_kg <dbl>
…
