…
```r
penguins_s <- penguins |>
    select(species, starts_with("bill"))

penguins_s |> 
  mutate(
    bill_sum = bill_depth_mm + bill_length_mm
    )
```

```{.output}
# A tibble: 344 × 4
   species bill_length_mm bill_depth_mm bill_sum
   <fct>            <dbl>         <dbl>    <dbl>
 1 Adelie            39.1          18.7     57.8
 2 Adelie            39.5          17.4     56.9
 3 Adelie            40.3          18       58.3
 4 Adelie            NA            NA       NA  
 5 Adelie            36.7          19.3     56  
 6 Adelie            39.3          20.6     59.9
 7 Adelie            38.9          17.8     56.7
 8 Adelie            39.2          19.6     58.8
 9 Adelie            34.1          18.1     52.2
10 Adelie            42            20.2     62.2
# … with 334 more rows
# ℹ Use `print(n = ...)` to see more rows
```

We've seen similar types of operations before.
But what if you want to sum 20 columns, you would need to type our all 20 column names!
Again, tedious. 
We have a special type of operations we can do to get that easily. 
We will use the function `sum` to calculate the sum of several variables when using this pipeline.


```r
penguins_s |>
    mutate(bill_sum = sum(c_across(starts_with("bill"))))
```

```{.output}
# A tibble: 344 × 4
   species bill_length_mm bill_depth_mm bill_sum
   <fct>            <dbl>         <dbl>    <dbl>
 1 Adelie            39.1          18.7       NA
 2 Adelie            39.5          17.4       NA
 3 Adelie            40.3          18         NA
 4 Adelie            NA            NA         NA
 5 Adelie            36.7          19.3       NA
 6 Adelie            39.3          20.6       NA
 7 Adelie            38.9          17.8       NA
 8 Adelie            39.2          19.6       NA
 9 Adelie            34.1          18.1       NA
10 Adelie            42            20.2       NA
# … with 334 more rows
# ℹ Use `print(n = ...)` to see more rows
```
…
```r
penguins_s |>
    rowwise() |>
    mutate(bill_sum = sum(c_across(starts_with("bill"))))
```

```{.output}
# A tibble: 344 × 4
# Rowwise: 
   species bill_length_mm bill_depth_mm bill_sum
   <fct>            <dbl>         <dbl>    <dbl>
 1 Adelie            39.1          18.7     57.8
 2 Adelie            39.5          17.4     56.9
 3 Adelie            40.3          18       58.3
 4 Adelie            NA            NA       NA  
 5 Adelie            36.7          19.3     56  
 6 Adelie            39.3          20.6     59.9
 7 Adelie            38.9          17.8     56.7
 8 Adelie            39.2          19.6     58.8
 9 Adelie            34.1          18.1     52.2
10 Adelie            42            20.2     62.2
# … with 334 more rows
# ℹ Use `print(n = ...)` to see more rows
```

Now we can see that we get the row sum of all the bill columns for each row, and the tibble tells us it is "Rowwise".
To stop the data set being rowwise, we can use the `ungroup()` function we learned before.


```r
penguins_s |>
    rowwise() |>
    mutate(bill_sum = sum(c_across(starts_with("bill")))) |>
    ungroup()
```

```{.output}
# A tibble: 344 × 4
   species bill_length_mm bill_depth_mm bill_sum
   <fct>            <dbl>         <dbl>    <dbl>
 1 Adelie            39.1          18.7     57.8
 2 Adelie            39.5          17.4     56.9
 3 Adelie            40.3          18       58.3
 4 Adelie            NA            NA       NA  
 5 Adelie            36.7          19.3     56  
 6 Adelie            39.3          20.6     59.9
 7 Adelie            38.9          17.8     56.7
 8 Adelie            39.2          19.6     58.8
 9 Adelie            34.1          18.1     52.2
10 Adelie            42            20.2     62.2
# … with 334 more rows
# ℹ Use `print(n = ...)` to see more rows
```
…
:::::::::::::::::::::::::::::::::::::::: solution 
## Solution 


```r
penguins |> 
  rowwise() |>
  mutate(
    mm_mean = mean(c_across(ends_with("mm")))
  )
```

```{.output}
# A tibble: 344 × 9
# Rowwise: 
   species island    bill_length_mm bill_d…¹ flipp…² body_…³ sex    year mm_mean
   <fct>   <fct>              <dbl>    <dbl>   <int>   <int> <fct> <int>   <dbl>
 1 Adelie  Torgersen           39.1     18.7     181    3750 male   2007    79.6
 2 Adelie  Torgersen           39.5     17.4     186    3800 fema…  2007    81.0
 3 Adelie  Torgersen           40.3     18       195    3250 fema…  2007    84.4
 4 Adelie  Torgersen           NA       NA        NA      NA <NA>   2007    NA  
 5 Adelie  Torgersen           36.7     19.3     193    3450 fema…  2007    83  
 6 Adelie  Torgersen           39.3     20.6     190    3650 male   2007    83.3
 7 Adelie  Torgersen           38.9     17.8     181    3625 fema…  2007    79.2
 8 Adelie  Torgersen           39.2     19.6     195    4675 male   2007    84.6
 9 Adelie  Torgersen           34.1     18.1     193    3475 <NA>   2007    81.7
10 Adelie  Torgersen           42       20.2     190    4250 <NA>   2007    84.1
# … with 334 more rows, and abbreviated variable names ¹​bill_depth_mm,
#   ²​flipper_length_mm, ³​body_mass_g
# ℹ Use `print(n = ...)` to see more rows
```
…
```r
penguins |> 
  rowwise() |>
  mutate(
    mm_mean = mean(c_across(ends_with("mm"))),
  ) |>
  group_by(species) |>
  mutate(mm_mean_species = mean(mm_mean, na.rm = TRUE))
```

```{.output}
# A tibble: 344 × 10
# Groups:   species [3]
   species island    bill_…¹ bill_…² flipp…³ body_…⁴ sex    year mm_mean mm_me…⁵
   <fct>   <fct>       <dbl>   <dbl>   <int>   <int> <fct> <int>   <dbl>   <dbl>
 1 Adelie  Torgersen    39.1    18.7     181    3750 male   2007    79.6    82.4
 2 Adelie  Torgersen    39.5    17.4     186    3800 fema…  2007    81.0    82.4
 3 Adelie  Torgersen    40.3    18       195    3250 fema…  2007    84.4    82.4
 4 Adelie  Torgersen    NA      NA        NA      NA <NA>   2007    NA      82.4
 5 Adelie  Torgersen    36.7    19.3     193    3450 fema…  2007    83      82.4
 6 Adelie  Torgersen    39.3    20.6     190    3650 male   2007    83.3    82.4
 7 Adelie  Torgersen    38.9    17.8     181    3625 fema…  2007    79.2    82.4
 8 Adelie  Torgersen    39.2    19.6     195    4675 male   2007    84.6    82.4
 9 Adelie  Torgersen    34.1    18.1     193    3475 <NA>   2007    81.7    82.4
10 Adelie  Torgersen    42      20.2     190    4250 <NA>   2007    84.1    82.4
# … with 334 more rows, and abbreviated variable names ¹​bill_length_mm,
#   ²​bill_depth_mm, ³​flipper_length_mm, ⁴​body_mass_g, ⁵​mm_mean_species
# ℹ Use `print(n = ...)` to see more rows
```
…
In this simple example we might have done so:


```r
penguins |> 
  mutate(
    bill_depth_sc = scale(bill_depth_mm),
    bill_length_sc = scale(bill_length_mm),
    flipper_length_sc = scale(flipper_length_mm)
)
```

```{.output}
# A tibble: 344 × 11
   species island    bill_…¹ bill_…² flipp…³ body_…⁴ sex    year bill_…⁵ bill_…⁶
   <fct>   <fct>       <dbl>   <dbl>   <int>   <int> <fct> <int>   <dbl>   <dbl>
 1 Adelie  Torgersen    39.1    18.7     181    3750 male   2007   0.784  -0.883
 2 Adelie  Torgersen    39.5    17.4     186    3800 fema…  2007   0.126  -0.810
 3 Adelie  Torgersen    40.3    18       195    3250 fema…  2007   0.430  -0.663
 4 Adelie  Torgersen    NA      NA        NA      NA <NA>   2007  NA      NA    
 5 Adelie  Torgersen    36.7    19.3     193    3450 fema…  2007   1.09   -1.32 
 6 Adelie  Torgersen    39.3    20.6     190    3650 male   2007   1.75   -0.847
 7 Adelie  Torgersen    38.9    17.8     181    3625 fema…  2007   0.329  -0.920
 8 Adelie  Torgersen    39.2    19.6     195    4675 male   2007   1.24   -0.865
 9 Adelie  Torgersen    34.1    18.1     193    3475 <NA>   2007   0.480  -1.80 
10 Adelie  Torgersen    42      20.2     190    4250 <NA>   2007   1.54   -0.352
# … with 334 more rows, 1 more variable: flipper_length_sc <dbl[,1]>, and
#   abbreviated variable names ¹​bill_length_mm, ²​bill_depth_mm,
#   ³​flipper_length_mm, ⁴​body_mass_g, ⁵​bill_depth_sc[,1], ⁶​bill_length_sc[,1]
# ℹ Use `print(n = ...)` to see more rows, and `colnames()` to see all variable names
```
Its just three columns, we can do that. 
But let us imagine we have 20 of these, typing all that out is tedious and error prone. 
You might forget to alter the name or keep the same type of naming convention. 
We are only human, we easily make mistakes.
With {dplyr}'s `across()` we can combine our knowledge of tidy-selectors and mutate to create the entire transformation for these columns at once.


```r
penguins |> 
  mutate(across(.cols = ends_with("mm"), 
                .fns = scale))
```

```{.output}
# A tibble: 344 × 8
   species island    bill_length_mm[,1] bill_depth…¹ flipp…² body_…³ sex    year
   <fct>   <fct>                  <dbl>        <dbl>   <dbl>   <int> <fct> <int>
 1 Adelie  Torgersen             -0.883        0.784  -1.42     3750 male   2007
 2 Adelie  Torgersen             -0.810        0.126  -1.06     3800 fema…  2007
 3 Adelie  Torgersen             -0.663        0.430  -0.421    3250 fema…  2007
 4 Adelie  Torgersen             NA           NA      NA          NA <NA>   2007
 5 Adelie  Torgersen             -1.32         1.09   -0.563    3450 fema…  2007
 6 Adelie  Torgersen             -0.847        1.75   -0.776    3650 male   2007
 7 Adelie  Torgersen             -0.920        0.329  -1.42     3625 fema…  2007
 8 Adelie  Torgersen             -0.865        1.24   -0.421    4675 male   2007
 9 Adelie  Torgersen             -1.80         0.480  -0.563    3475 <NA>   2007
10 Adelie  Torgersen             -0.352        1.54   -0.776    4250 <NA>   2007
# … with 334 more rows, and abbreviated variable names ¹​bill_depth_mm[,1],
#   ²​flipper_length_mm[,1], ³​body_mass_g
# ℹ Use `print(n = ...)` to see more rows
```
…
but often, we'd like to keep the original but add the new variants. We can do that to within the across!


```r
penguins |> 
  mutate(across(.cols = ends_with("mm"),
                .fns = scale, 
                .names = "{.col}_sc")) |> 
  select(contains("mm"))
```

```{.output}
# A tibble: 344 × 6
   bill_length_mm bill_depth_mm flipper_length_mm bill_length_…¹ bill_…² flipp…³
            <dbl>         <dbl>             <int>          <dbl>   <dbl>   <dbl>
 1           39.1          18.7               181         -0.883   0.784  -1.42 
 2           39.5          17.4               186         -0.810   0.126  -1.06 
 3           40.3          18                 195         -0.663   0.430  -0.421
 4           NA            NA                  NA         NA      NA      NA    
 5           36.7          19.3               193         -1.32    1.09   -0.563
 6           39.3          20.6               190         -0.847   1.75   -0.776
 7           38.9          17.8               181         -0.920   0.329  -1.42 
 8           39.2          19.6               195         -0.865   1.24   -0.421
 9           34.1          18.1               193         -1.80    0.480  -0.563
10           42            20.2               190         -0.352   1.54   -0.776
# … with 334 more rows, and abbreviated variable names ¹​bill_length_mm_sc[,1],
#   ²​bill_depth_mm_sc[,1], ³​flipper_length_mm_sc[,1]
# ℹ Use `print(n = ...)` to see more rows
```
…
:::::::::::::::::::::::::::::::::::::::: solution
## Solution 


```r
penguins |> 
  mutate(across(.cols = contains("_"),
                .fns = scale, 
                .names = "sc_{.col}"))
```

```{.output}
# A tibble: 344 × 12
   species island    bill_…¹ bill_…² flipp…³ body_…⁴ sex    year sc_bi…⁵ sc_bi…⁶
   <fct>   <fct>       <dbl>   <dbl>   <int>   <int> <fct> <int>   <dbl>   <dbl>
 1 Adelie  Torgersen    39.1    18.7     181    3750 male   2007  -0.883   0.784
 2 Adelie  Torgersen    39.5    17.4     186    3800 fema…  2007  -0.810   0.126
 3 Adelie  Torgersen    40.3    18       195    3250 fema…  2007  -0.663   0.430
 4 Adelie  Torgersen    NA      NA        NA      NA <NA>   2007  NA      NA    
 5 Adelie  Torgersen    36.7    19.3     193    3450 fema…  2007  -1.32    1.09 
 6 Adelie  Torgersen    39.3    20.6     190    3650 male   2007  -0.847   1.75 
 7 Adelie  Torgersen    38.9    17.8     181    3625 fema…  2007  -0.920   0.329
 8 Adelie  Torgersen    39.2    19.6     195    4675 male   2007  -0.865   1.24 
 9 Adelie  Torgersen    34.1    18.1     193    3475 <NA>   2007  -1.80    0.480
10 Adelie  Torgersen    42      20.2     190    4250 <NA>   2007  -0.352   1.54 
# … with 334 more rows, 2 more variables: sc_flipper_length_mm <dbl[,1]>,
#   sc_body_mass_g <dbl[,1]>, and abbreviated variable names ¹​bill_length_mm,
#   ²​bill_depth_mm, ³​flipper_length_mm, ⁴​body_mass_g, ⁵​sc_bill_length_mm[,1],
#   ⁶​sc_bill_depth_mm[,1]
# ℹ Use `print(n = ...)` to see more rows, and `colnames()` to see all variable names
```
…
```r
penguins |> 
  mutate(
    across(.cols = contains("_"),
           .fns = scale, 
           .names = "sc_{.col}"),
    body_mass_kg = body_mass_g / 1000
  )
```

```{.output}
# A tibble: 344 × 13
   species island    bill_…¹ bill_…² flipp…³ body_…⁴ sex    year sc_bi…⁵ sc_bi…⁶
   <fct>   <fct>       <dbl>   <dbl>   <int>   <int> <fct> <int>   <dbl>   <dbl>
 1 Adelie  Torgersen    39.1    18.7     181    3750 male   2007  -0.883   0.784
 2 Adelie  Torgersen    39.5    17.4     186    3800 fema…  2007  -0.810   0.126
 3 Adelie  Torgersen    40.3    18       195    3250 fema…  2007  -0.663   0.430
 4 Adelie  Torgersen    NA      NA        NA      NA <NA>   2007  NA      NA    
 5 Adelie  Torgersen    36.7    19.3     193    3450 fema…  2007  -1.32    1.09 
 6 Adelie  Torgersen    39.3    20.6     190    3650 male   2007  -0.847   1.75 
 7 Adelie  Torgersen    38.9    17.8     181    3625 fema…  2007  -0.920   0.329
 8 Adelie  Torgersen    39.2    19.6     195    4675 male   2007  -0.865   1.24 
 9 Adelie  Torgersen    34.1    18.1     193    3475 <NA>   2007  -1.80    0.480
10 Adelie  Torgersen    42      20.2     190    4250 <NA>   2007  -0.352   1.54 
# … with 334 more rows, 3 more variables: sc_flipper_length_mm <dbl[,1]>,
#   sc_body_mass_g <dbl[,1]>, body_mass_kg <dbl>, and abbreviated variable
#   names ¹​bill_length_mm, ²​bill_depth_mm, ³​flipper_length_mm, ⁴​body_mass_g,
#   ⁵​sc_bill_length_mm[,1], ⁶​sc_bill_depth_mm[,1]
# ℹ Use `print(n = ...)` to see more rows, and `colnames()` to see all variable names
```
…
